<?xml version="1.0" encoding="UTF-8" standalone="no"?>
<!DOCTYPE svg PUBLIC "-//W3C//DTD SVG 1.1//EN" "http://www.w3.org/Graphics/SVG/1.1/DTD/svg11.dtd">
<svg width="100%" height="100%" viewBox="0 0 64 64" version="1.1" xmlns="http://www.w3.org/2000/svg" xmlns:xlink="http://www.w3.org/1999/xlink" xml:space="preserve" xmlns:serif="http://www.serif.com/" style="fill-rule:evenodd;clip-rule:evenodd;stroke-linejoin:round;stroke-miterlimit:2;">
    <g transform="matrix(1,0,0,1,-96,-7.63833e-14)">
        <g id="Logomark-mono" serif:id="Logomark mono" transform="matrix(0.998953,0,0,1,0.100535,0)">
            <rect x="96" y="0" width="64.067" height="64" style="fill:none;"/>
            <clipPath id="_clip1">
                <rect x="96" y="0" width="64.067" height="64"/>
            </clipPath>
            <g clip-path="url(#_clip1)">
                <g id="Bird-logo" serif:id="Bird logo" transform="matrix(-0.100967,0,0,0.100862,150.665,6.17942)">
                    <g id="Shape" transform="matrix(-0.58753,0,0,0.58753,741.173,-61.2663)">
                        <rect x="340" y="0" width="1080" height="1080" style="fill:none;"/>
                    </g>
                    <g transform="matrix(-9.50628,-2.81589,-2.81589,9.50628,1533.42,279.123)">
                        <path d="M115.063,38.698L101.333,52C101.333,52 117.045,55.535 130.339,51.022C124.714,48.413 119.242,43.985 115.214,38.722L115.063,38.698ZM109.695,25.759C110.936,30.085 113.029,34.191 115.867,37.92L115.863,37.923C120.027,43.434 125.815,48.029 131.694,50.53C134.238,49.545 136.669,48.241 138.853,46.533C143.955,42.541 146.315,39.701 147.629,37.152L109.695,25.759ZM109.39,24.623L148.064,36.239C148.413,35.438 148.675,34.657 148.907,33.867L157.333,30.667L149.2,27.653C148.507,24.587 146.773,22.827 146.773,22.827C142.4,18.453 135.333,18.453 130.96,22.827L127.013,26.773L109.414,8.081C108.006,13.712 108.062,19.32 109.39,24.623Z" style="fill-rule:nonzero;"/>
                    </g>
                </g>
            </g>
        </g>
    </g>
</svg>
